<svg width="21" height="21" viewBox="0 0 21 21" fill="none" xmlns="http://www.w3.org/2000/svg">
<path d="M6.77897 8.16577H3.44563V17.3324H6.77897V8.16577Z" fill="black"/>
<path d="M16.779 11.4991H13.4456V17.3324H16.779V11.4991Z" fill="black"/>
<path d="M11.779 3.9991H8.44563V17.3324H11.779V3.9991Z" fill="black"/>
</svg>
