<svg width="21" height="21" viewBox="0 0 21 21" fill="none" xmlns="http://www.w3.org/2000/svg">
<path d="M14.279 2.30501C11.979 2.30501 10.1123 4.17167 10.1123 6.47167C10.1123 8.77168 11.979 10.6383 14.279 10.6383C16.579 10.6383 18.4457 8.77168 18.4457 6.47167C18.4457 4.17167 16.579 2.30501 14.279 2.30501ZM14.6957 7.30501H13.8623V3.97167H14.6957V7.30501ZM14.6957 8.13834V8.97167H13.8623V8.13834H14.6957ZM4.27899 12.7217C4.27899 12.03 4.83732 11.4717 5.52899 11.4717C6.22066 11.4717 6.77899 12.03 6.77899 12.7217C6.77899 13.4133 6.22066 13.9717 5.52899 13.9717C4.83732 13.9717 4.27899 13.4133 4.27899 12.7217ZM15.1123 12.2467C15.654 12.1717 16.229 12.0133 16.779 11.7467V17.305C16.779 17.7633 16.404 18.1383 15.9457 18.1383H15.1123C14.654 18.1383 14.279 17.7633 14.279 17.305V16.4717H4.27899V17.305C4.27899 17.7633 3.90399 18.1383 3.44566 18.1383H2.61233C2.15399 18.1383 1.77899 17.7633 1.77899 17.305V10.6383L3.51232 5.64667C3.68732 5.15501 4.14566 4.80501 4.69566 4.80501H8.68733C8.52899 5.33001 8.44566 5.89667 8.44566 6.47167H4.98732L4.12066 8.97167H9.00399C9.30399 9.59667 9.70399 10.1633 10.1957 10.6383H3.44566V14.805H15.1123V12.2467ZM14.204 12.305C13.4623 12.2967 12.754 12.1467 12.0957 11.88C11.904 12.105 11.779 12.3967 11.779 12.7217C11.779 13.4133 12.3373 13.9717 13.029 13.9717C13.7207 13.9717 14.279 13.4133 14.279 12.7217C14.279 12.5717 14.254 12.4383 14.204 12.305Z" fill="black"/>
</svg>
