<svg width="21" height="21" viewBox="0 0 21 21" fill="none" xmlns="http://www.w3.org/2000/svg">
<path d="M15.879 4.39692C15.7123 3.90525 15.2456 3.55525 14.6956 3.55525H5.52897C4.97897 3.55525 4.52064 3.90525 4.34564 4.39692L2.6123 9.38859V16.0553C2.6123 16.5136 2.9873 16.8886 3.44564 16.8886H4.27897C4.7373 16.8886 5.1123 16.5136 5.1123 16.0553V15.2219H15.1123V16.0553C15.1123 16.5136 15.4873 16.8886 15.9456 16.8886H16.779C17.2373 16.8886 17.6123 16.5136 17.6123 16.0553V9.38859L15.879 4.39692ZM5.82064 5.22192H14.3956L15.2623 7.72192H4.95397L5.82064 5.22192ZM15.9456 13.5553H4.27897V9.38859H15.9456V13.5553Z" fill="black"/>
<path d="M6.3623 12.7219C7.05266 12.7219 7.6123 12.1623 7.6123 11.4719C7.6123 10.7816 7.05266 10.2219 6.3623 10.2219C5.67195 10.2219 5.1123 10.7816 5.1123 11.4719C5.1123 12.1623 5.67195 12.7219 6.3623 12.7219Z" fill="black"/>
<path d="M13.8623 12.7219C14.5527 12.7219 15.1123 12.1623 15.1123 11.4719C15.1123 10.7816 14.5527 10.2219 13.8623 10.2219C13.1719 10.2219 12.6123 10.7816 12.6123 11.4719C12.6123 12.1623 13.1719 12.7219 13.8623 12.7219Z" fill="black"/>
</svg>
