<svg width="25" height="25" viewBox="0 0 25 25" fill="none" xmlns="http://www.w3.org/2000/svg">
<path d="M12.6347 6.99731C11.5347 6.99731 10.6347 6.09731 10.6347 4.99731C10.6347 3.89731 11.5347 2.99731 12.6347 2.99731C13.7347 2.99731 14.6347 3.89731 14.6347 4.99731C14.6347 6.09731 13.7347 6.99731 12.6347 6.99731ZM18.5847 2.99731C19.1747 2.99731 19.6447 3.50731 19.5847 4.08731C19.5647 4.23731 19.3747 8.14731 15.6347 9.39732V21.9973C15.6347 22.5473 15.1847 22.9973 14.6347 22.9973C14.0847 22.9973 13.6347 22.5473 13.6347 21.9973V16.9973H11.6347V21.9973C11.6347 22.5473 11.1847 22.9973 10.6347 22.9973C10.0847 22.9973 9.6347 22.5473 9.6347 21.9973V11.0973C9.3347 11.1973 9.1347 11.2973 9.0347 11.3973C8.5747 11.7573 7.8647 12.2673 7.6747 14.0673C7.6247 14.5873 7.2047 14.9973 6.6747 14.9973C6.0947 14.9973 5.6247 14.5073 5.6747 13.9273C5.8047 12.3273 6.2947 10.9473 7.7447 9.70732C8.8447 8.80732 10.6347 7.99731 12.6347 7.99731C14.6347 7.99731 15.3147 7.53731 16.1147 6.93731C16.5447 6.59731 17.3947 5.94731 17.5947 3.91731C17.6447 3.39731 18.0647 2.99731 18.5847 2.99731ZM5.6347 16.9973H6.6347C7.1847 16.9973 7.6347 17.4473 7.6347 17.9973V21.9973C7.6347 22.5473 7.1847 22.9973 6.6347 22.9973H5.6347C5.0847 22.9973 4.6347 22.5473 4.6347 21.9973V17.9973C4.6347 17.4473 5.0847 16.9973 5.6347 16.9973Z" fill="#1A202C"/>
</svg>
