<svg width="21" height="21" viewBox="0 0 21 21" fill="none" xmlns="http://www.w3.org/2000/svg">
<path d="M15.1123 7.7491H14.279V6.08244C14.279 3.78244 12.4123 1.91577 10.1123 1.91577C7.81228 1.91577 5.94562 3.78244 5.94562 6.08244H7.61228C7.61228 4.6991 8.72895 3.58244 10.1123 3.58244C11.4956 3.58244 12.6123 4.6991 12.6123 6.08244V7.7491H5.11228C4.19562 7.7491 3.44562 8.4991 3.44562 9.41577V17.7491C3.44562 18.6658 4.19562 19.4158 5.11228 19.4158H15.1123C16.029 19.4158 16.779 18.6658 16.779 17.7491V9.41577C16.779 8.4991 16.029 7.7491 15.1123 7.7491ZM15.1123 17.7491H5.11228V9.41577H15.1123V17.7491ZM10.1123 15.2491C11.029 15.2491 11.779 14.4991 11.779 13.5824C11.779 12.6658 11.029 11.9158 10.1123 11.9158C9.19562 11.9158 8.44562 12.6658 8.44562 13.5824C8.44562 14.4991 9.19562 15.2491 10.1123 15.2491Z" fill="black"/>
</svg>
