<svg width="24" height="25" viewBox="0 0 24 25" fill="none" xmlns="http://www.w3.org/2000/svg">
<path d="M12 2.8877L4 5.8877V11.9777C4 17.0277 7.41 21.7377 12 22.8877C16.59 21.7377 20 17.0277 20 11.9777V5.8877L12 2.8877ZM18 11.9777C18 15.9777 15.45 19.6777 12 20.8077C8.55 19.6777 6 15.9877 6 11.9777V7.2777L12 5.0277L18 7.2777V11.9777Z" fill="white"/>
</svg>
