<svg width="20" height="20" viewBox="0 0 20 20" fill="none" xmlns="http://www.w3.org/2000/svg">
<path d="M13.9417 8.97501C13.9417 9.03334 13.9417 9.08334 13.9417 9.14167C13.9417 11.0917 12.3167 13.675 8.94169 16.7583C5.56669 13.675 3.94169 11.1 3.94169 9.14167C3.94169 6.11668 6.15002 3.97501 8.94169 3.97501C9.22502 3.97501 9.50836 4.00001 9.77502 4.04168V2.35834C9.50002 2.32501 9.22502 2.30834 8.94169 2.30834C5.44169 2.30834 2.27502 4.99168 2.27502 9.14167C2.27502 11.9083 4.50002 15.1833 8.94169 18.975C13.3834 15.1833 15.6084 11.9083 15.6084 9.14167C15.6084 9.08334 15.6084 9.03334 15.6084 8.97501H13.9417Z" fill="black"/>
<path d="M8.94169 10.6417C9.86217 10.6417 10.6084 9.89548 10.6084 8.97501C10.6084 8.05453 9.86217 7.30834 8.94169 7.30834C8.02122 7.30834 7.27502 8.05453 7.27502 8.97501C7.27502 9.89548 8.02122 10.6417 8.94169 10.6417Z" fill="black"/>
<path d="M17.725 2.20834L16.5417 1.02501L14.775 2.80001L13.0084 1.02501L11.825 2.20834L13.6 3.97501L11.825 5.74168L13.0084 6.92501L14.775 5.15001L16.5417 6.92501L17.725 5.74168L15.95 3.97501L17.725 2.20834Z" fill="black"/>
</svg>
